networkId,name,termsAcceptanceDate,dobMax,customFields,venueId,venueName,marketingOptIn,dobMin,devices,email,skyfiiId,locale,modified,operation,termsAcceptanceVersion,status,marketingLists,phone,created,gender
475,Hyslan Rangel Martins,1607347985000,2001-03-09,[],10003857,Comunidade Jacarezinho,True,2001-03-09,"[{'model': 'Galaxy J7 Prime2 TV', 'os': 'Android', 'userAgent': 'Mozilla/5.0 (Linux; Android 9; SM-G611MT Build/PPR1.180610.011; wv) AppleWebKit/537.36 (KHTML, like Gecko) Version/4.0 Chrome/87.0.4280.101 Mobile Safari/537.36', 'brand': 'Samsung', 'type': 'mobile', 'deviceId': 117162682, 'clientMacAddress': '38:9A:F6:C2:54:8B'}]",hyslanrangel@gmail.com,1011990814,pt-br,1608042566000,update,1,subscribed,"[{'status': 'subscribed', 'id': '930'}]",+5521973477753,1607347985000,male
475,Nicodemos Costa,1608042564000,1960-08-10,[],10004101,Comunidade Jacarezinho 02,False,1960-08-10,"[{'model': 'iPhone', 'os': 'iOS', 'userAgent': 'Mozilla/5.0 (iPhone; CPU iPhone OS 14_2 like Mac OS X) AppleWebKit/605.1.15 (KHTML, like Gecko) Mobile/15E148', 'brand': 'Apple', 'type': 'mobile', 'deviceId': 117284374, 'clientMacAddress': '3E:52:1B:3F:D9:E4'}]",nicodemos.costa60@gmail.com,1012086120,pt-br,1608042567000,create,1,unsubscribed,"[{'status': 'unsubscribed', 'id': '930'}]",+5521972532671,1608042564000,male
