networkId,name,termsAcceptanceDate,dobMax,customFields,venueId,venueName,marketingOptIn,dobMin,devices,email,skyfiiId,locale,modified,operation,termsAcceptanceVersion,status,marketingLists,phone,created,gender
475,Shirley muryel,1608051727000,1979-07-08,"[{'value': ['ROC JEF'], 'type': 'text', 'key': 'Promotor (Código_)'}]",10003779,Comunidade Rocinha,False,1979-07-08,"[{'model': 'Galaxy On7', 'os': 'Android', 'userAgent': 'Mozilla/5.0 (Linux; Android 6.0.1; SM-G600FY Build/MMB29M; wv) AppleWebKit/537.36 (KHTML, like Gecko) Version/4.0 Chrome/86.0.4240.198 Mobile Safari/537.36', 'brand': 'Samsung', 'type': 'mobile', 'deviceId': 117287347, 'clientMacAddress': '48:49:C7:EF:79:FE'}]",shirleymuryelf@gmail.com,1012088399,pt-br,1608051730000,create,1,unsubscribed,"[{'status': 'unsubscribed', 'id': '915'}]",+5521995477034,1608051727000,female
475,Jéssica Carla,1608051724000,1998-12-31,"[{'value': ['jacaray'], 'type': 'text', 'key': 'Promotor (Código_)'}]",10004101,Comunidade Jacarezinho 02,True,1998-12-31,"[{'model': 'Aristo 2', 'os': 'Android', 'userAgent': 'Mozilla/5.0 (Linux; Android 7.1.2; LM-X210 Build/N2G47H; wv) AppleWebKit/537.36 (KHTML, like Gecko) Version/4.0 Chrome/87.0.4280.101 Mobile Safari/537.36', 'brand': 'LG', 'type': 'mobile', 'deviceId': 117287346, 'clientMacAddress': '98:B8:BA:33:F6:44'}]",ayllab.3112@gmail.com,1012088398,pt-br,1608051727000,create,1,subscribed,"[{'status': 'subscribed', 'id': '930'}]",+5521971516145,1608051724000,female
