networkId,name,termsAcceptanceDate,dobMax,customFields,venueId,venueName,marketingOptIn,dobMin,devices,email,skyfiiId,locale,modified,operation,termsAcceptanceVersion,status,marketingLists,phone,created,gender
475,Alan,1607827398000,1999-07-31,"[{'value': ['Jane'], 'type': 'text', 'key': 'Promotor (Código_)'}]",10003857,Comunidade Jacarezinho,True,1999-07-31,"[{'model': 'Moto G Play (6th Gen.)', 'os': 'Android', 'userAgent': 'Mozilla/5.0 (Linux; Android 9; moto g(6) play Build/PPPS29.55-35-18-7; wv) AppleWebKit/537.36 (KHTML, like Gecko) Version/4.0 Chrome/87.0.4280.101 Mobile Safari/537.36', 'brand': 'Motorola', 'type': 'mobile', 'deviceId': 116723587, 'clientMacAddress': '60:1D:91:A8:08:D0'}, {'model': 'Galaxy J5 Prime', 'os': 'Android', 'userAgent': 'Mozilla/5.0 (Linux; Android 8.0.0; SM-G570M Build/R16NW; wv) AppleWebKit/537.36 (KHTML, like Gecko) Version/4.0 Chrome/86.0.4240.198 Mobile Safari/537.36', 'brand': 'Samsung', 'type': 'mobile', 'deviceId': 116754472, 'clientMacAddress': '38:9A:F6:8F:9C:37'}, {'model': 'iPhone', 'os': 'iOS', 'userAgent': 'Mozilla/5.0 (iPhone; CPU iPhone OS 12_4_8 like Mac OS X) AppleWebKit/605.1.15 (KHTML, like Gecko) Mobile/15E148', 'brand': 'Apple', 'type': 'mobile', 'deviceId': 116754517, 'clientMacAddress': '00:6D:52:7B:97:BC'}, {'model': 'One Vision', 'os': 'Android', 'userAgent': 'Mozilla/5.0 (Linux; Android 10; motorola one vision Build/QSAS30.62-24-15; wv) AppleWebKit/537.36 (KHTML, like Gecko) Version/4.0 Chrome/87.0.4280.101 Mobile Safari/537.36', 'brand': 'Motorola', 'type': 'mobile', 'deviceId': 117250737, 'clientMacAddress': 'BE:B3:CA:28:D5:7A'}]",alansantosrodrigues58@gmail.com,1011643660,pt-br,1608324972000,update,1,subscribed,"[{'status': 'subscribed', 'id': '930'}]",+5521992698474,1604686090000,male
475,Carla dantas,1608324970000,1991-01-30,[],10003967,Comunidade Belém - TELÉGRAFO,True,1991-01-30,"[{'model': 'Galaxy A10', 'os': 'Android', 'userAgent': 'Mozilla/5.0 (Linux; Android 10; SM-A105M Build/QP1A.190711.020; wv) AppleWebKit/537.36 (KHTML, like Gecko) Version/4.0 Chrome/86.0.4240.198 Mobile Safari/537.36', 'brand': 'Samsung', 'type': 'mobile', 'deviceId': 116946715, 'clientMacAddress': '4E:B7:AF:D8:DA:E8'}, {'model': 'Galaxy M30s', 'os': 'Android', 'userAgent': 'Mozilla/5.0 (Linux; Android 10; SM-A205G Build/QP1A.190711.020; wv) AppleWebKit/537.36 (KHTML, like Gecko) Version/4.0 Chrome/80.0.3987.99 Mobile Safari/537.36', 'brand': 'Samsung', 'type': 'mobile', 'deviceId': 116959251, 'clientMacAddress': 'E6:B5:F4:7C:BC:F6'}, {'model': 'Galaxy J1 mini', 'os': 'Android', 'userAgent': 'Mozilla/5.0 (Linux; Android 5.1.1; SM-J105B Build/LMY47V; wv) AppleWebKit/537.36 (KHTML, like Gecko) Version/4.0 Chrome/55.0.2883.91 Mobile Safari/537.36', 'brand': 'Samsung', 'type': 'mobile', 'deviceId': 117344451, 'clientMacAddress': '48:49:C7:3A:BF:4C'}]",cd8584782@gmail.com,1011818942,pt-br,1608324970000,update,1,subscribed,"[{'status': 'subscribed', 'id': '929'}]",+5591983280988,1606170246000,female
