timestamp,skyfiiId,venueId,bytesUp,venueName,deviceId,duration,bytesDown
1607915957000,1012059831,10003806,35840,Comunidade Sol Nascente,117251264,243,158720
1607914426000,1011564955,10003857,1465171,Comunidade Jacarezinho,116623074,553,9964862
1607914692000,1011799579,10003857,4083446,Comunidade Jacarezinho,117217875,1808,56172941
