timestamp,skyfiiId,venueId,bytesUp,venueName,deviceId,duration,bytesDown
1607900130000,1011822759,10003967,1242062,Comunidade Belém - TELÉGRAFO,116951156,1478,12798826
1607901600000,1012009862,10003779,14324171,Comunidade Rocinha,117187293,144,354231530
1607901770000,1011704629,10003857,1157464,Comunidade Jacarezinho,116802190,1800,3769147
