timestamp,skyfiiId,venueId,bytesUp,venueName,deviceId,duration,bytesDown
1607953361000,1011836578,10004069,2931437,Comunidade Capão Redondo,117022100,1072,35254084
1607954490000,1011638607,10003963,5503054,Comunidade Belém - BENGUI,116717244,1809,127098946
