timestamp,skyfiiId,venueId,bytesUp,venueName,deviceId,duration,bytesDown
1607984426000,1011554743,10003420,1424384,Comunidade Heliópolis,116610082,695,28154880
1607983035000,1012029769,10003779,380607,Comunidade Rocinha,117212627,366,1600260
1607982304000,1011631888,10003742,353030,Comunidade Paraisópolis,116708254,1203,999689
