timestamp,skyfiiId,venueId,bytesUp,venueName,deviceId,duration,bytesDown
1607951652000,1012043485,10003806,946176,Comunidade Sol Nascente,117230310,635,20999168
1607950712000,1012022508,10003857,168896,Comunidade Jacarezinho,117203229,242,836285
