timestamp,skyfiiId,venueId,bytesUp,venueName,deviceId,duration,bytesDown
1607986461000,1011652373,10003857,3717358,Comunidade Jacarezinho,116734876,1814,53285822
1607986303000,1012081239,10004069,0,Comunidade Capão Redondo,117278527,0,0
