timestamp,skyfiiId,venueId,bytesUp,venueName,deviceId,duration,bytesDown
1607991437000,1011957433,10004069,1696814,Comunidade Capão Redondo,117120471,179,34859625
1607992580000,1011773459,10003420,232448,Comunidade Heliópolis,116889557,469,12862464
