timestamp,skyfiiId,venueId,bytesUp,venueName,deviceId,duration,bytesDown
1607982037000,1011836578,10004069,611219,Comunidade Capão Redondo,117022100,339,5782788
1607982627000,1012080305,10004069,4624310,Comunidade Capão Redondo,117277280,144,76895489
1607981826000,1011615672,10003779,693396,Comunidade Rocinha,116687474,672,5751383
