timestamp,skyfiiId,venueId,bytesUp,venueName,deviceId,duration,bytesDown
1607910421000,1011737590,10003742,805786,Comunidade Paraisópolis,116844420,22,40918003
1607910415000,1011564955,10003857,34750,Comunidade Jacarezinho,117173463,294,158610
