timestamp,skyfiiId,venueId,bytesUp,venueName,deviceId,duration,bytesDown
1607945275000,1011978188,10003857,3707550,Comunidade Jacarezinho,117146931,239,42969875
1607945306000,1011965287,10004069,1413951,Comunidade Capão Redondo,117130325,19,15602155
