timestamp,skyfiiId,venueId,bytesUp,venueName,deviceId,duration,bytesDown
1607950996000,1012072965,10003420,116736,Comunidade Heliópolis,117267765,451,222208
1607949599000,1011777454,10003963,3169168,Comunidade Belém - BENGUI,116894319,1810,13545942
