timestamp,skyfiiId,venueId,bytesUp,venueName,deviceId,duration,bytesDown
1607972060000,1011564482,10003779,124849,Comunidade Rocinha,116622463,523,932735
1607972551000,1011957039,10004069,1204662,Comunidade Capão Redondo,117119657,1814,7807992
1607972707000,1011864275,10003420,0,Comunidade Heliópolis,117002574,0,0
