timestamp,skyfiiId,venueId,bytesUp,venueName,deviceId,duration,bytesDown
1607966388000,1011777454,10003963,5313585,Comunidade Belém - BENGUI,116894319,1811,136911788
1607966756000,1012016157,10003779,1813159,Comunidade Rocinha,117195101,719,40585122
