timestamp,skyfiiId,venueId,bytesUp,venueName,deviceId,duration,bytesDown
1607907486000,1011704629,10003857,1695284,Comunidade Jacarezinho,116802190,826,10520124
1607908664000,1012059451,10003857,4574382,Comunidade Jacarezinho,117250860,279,90363662
1607907149000,1011908339,10003966,1383517,Comunidade Belém - JURUNAS,117059433,1300,19617346
1607906996000,1012030206,10003792,2347713,Comunidade Maré,117213208,1291,15280450
