timestamp,skyfiiId,venueId,bytesUp,venueName,deviceId,duration,bytesDown
1607906275000,1012070470,10003742,1416599,Comunidade Paraisópolis,117264972,741,7484571
1607906928000,1011952182,10003857,5040481,Comunidade Jacarezinho,117113771,1803,107374561
