timestamp,skyfiiId,venueId,bytesUp,venueName,deviceId,duration,bytesDown
1607955431000,1011677686,10003420,1921024,Comunidade Heliópolis,116767879,1966,9123840
1607954977000,1012022508,10003857,306397,Comunidade Jacarezinho,117203229,435,1689145
