timestamp,skyfiiId,venueId,bytesUp,venueName,deviceId,duration,bytesDown
1607920547000,1012059831,10003806,3917824,Comunidade Sol Nascente,117251264,3601,233625600
1607922778000,1012070713,10003857,15794596,Comunidade Jacarezinho,117265255,1807,54103236
1607922668000,1012071054,10003742,12126130,Comunidade Paraisópolis,117265642,544,3962790
1607922641000,1011679529,10003857,5814300,Comunidade Jacarezinho,117216967,544,45831561
