timestamp,skyfiiId,venueId,bytesUp,venueName,deviceId,duration,bytesDown
1607977047000,1011622197,10003966,3122411,Comunidade Belém - JURUNAS,116695736,1807,15752022
1607976567000,1012076025,10003779,34115,Comunidade Rocinha,117271680,221,112633
