timestamp,skyfiiId,venueId,bytesUp,venueName,deviceId,duration,bytesDown
1607970695000,1012046560,10003831,0,Comunidade Maré 2,117234045,0,0
1607970819000,1012024320,10003966,1618331,Comunidade Belém - JURUNAS,117205400,1809,61848446
