timestamp,skyfiiId,venueId,bytesUp,venueName,deviceId,duration,bytesDown
1607949900000,1011669747,10003967,54902986,Comunidade Belém - TELÉGRAFO,116757634,279,5352222
1607951340000,1011639960,10003420,54272,Comunidade Heliópolis,116718752,429,86016
1607950591000,1012072914,10003420,1213440,Comunidade Heliópolis,117267704,1178,2835456
1607948289000,1011868303,10003779,335383,Comunidade Rocinha,117008020,1454,1469024
