timestamp,skyfiiId,venueId,bytesUp,venueName,deviceId,duration,bytesDown
1607904158000,1012037768,10003420,16243712,Comunidade Heliópolis,117222680,3608,138834944
1607907461000,1012051073,10003806,26624,Comunidade Sol Nascente,117239805,248,143360
