timestamp,skyfiiId,venueId,bytesUp,venueName,deviceId,duration,bytesDown
1607988605000,1012081401,10003779,386372,Comunidade Rocinha,117278721,955,9218758
1607988678000,1011777454,10003963,6591826,Comunidade Belém - BENGUI,116894319,1809,129148801
1607989922000,1012045767,10003806,259072,Comunidade Sol Nascente,117233186,447,1882112
1607988512000,1011652373,10003857,3989491,Comunidade Jacarezinho,116734876,1803,11473441
