timestamp,skyfiiId,venueId,bytesUp,venueName,deviceId,duration,bytesDown
1608031383000,1012084408,10004069,738171,Comunidade Capão Redondo,117282326,985,5068501
1608032589000,1011573499,10003967,1402422,Comunidade Belém - TELÉGRAFO,116633687,1805,20317701
