timestamp,skyfiiId,venueId,bytesUp,venueName,deviceId,duration,bytesDown
1608347945000,1012100210,10003964,6502992,Comunidade Belém - CABANAGEM,117302365,310,153344734
1608347655000,1012038285,10004069,216371,Comunidade Capão Redondo,117223365,322,2824585
1608348008000,1011637779,10003963,5423828,Comunidade Belém - BENGUI,116716233,1803,188492324
