timestamp,skyfiiId,venueId,bytesUp,venueName,deviceId,duration,bytesDown
1608474967000,1012051073,10004102,2837504,Comunidade Sol Nascente 01,117239805,3613,46780416
1608476965000,1011990814,10004100,890837,Comunidade Jacarezinho 01,117162682,330,3529488
