timestamp,skyfiiId,venueId,bytesUp,venueName,deviceId,duration,bytesDown
1608510302000,1012014461,10004101,1546040,Comunidade Jacarezinho 02,117192900,1804,7337029
1608511687000,1011929983,10003742,480065,Comunidade Paraisópolis,117086010,735,1635465
