timestamp,skyfiiId,venueId,bytesUp,venueName,deviceId,duration,bytesDown
1608377658000,1012030953,10003831,551552,Comunidade Maré 2,117214191,130,1835154
1608377994000,1012022508,10004100,210325,Comunidade Jacarezinho 01,117203229,1420,666922
