timestamp,skyfiiId,venueId,bytesUp,venueName,deviceId,duration,bytesDown
1608191782000,1011821911,10003420,619520,Comunidade Heliópolis,116950217,496,10907648
1608190666000,1012046560,10003831,3799988,Comunidade Maré 2,117234045,1154,89748040
