timestamp,skyfiiId,venueId,bytesUp,venueName,deviceId,duration,bytesDown
1608296539000,1011639306,10004101,2711704,Comunidade Jacarezinho 02,116718013,1808,59308570
1608296237000,1011542519,10004069,0,Comunidade Capão Redondo,116594592,0,0
