timestamp,skyfiiId,venueId,bytesUp,venueName,deviceId,duration,bytesDown
1608187030000,1011990814,10004100,6036685,Comunidade Jacarezinho 01,117162682,684,73769454
1608186305000,1011799579,10004100,3290976,Comunidade Jacarezinho 01,117217875,576,6709233
