timestamp,skyfiiId,venueId,bytesUp,venueName,deviceId,duration,bytesDown
1608048185000,1011777454,10003963,4131068,Comunidade Belém - BENGUI,116894319,1807,197049299
1608047411000,1011630652,10003966,379184,Comunidade Belém - JURUNAS,116706689,445,3397006
