timestamp,skyfiiId,venueId,bytesUp,venueName,deviceId,duration,bytesDown
1608028887000,1011942548,10004069,223594,Comunidade Capão Redondo,117101524,536,1883939
1608030085000,1012041910,10003420,547840,Comunidade Heliópolis,117228251,890,2860032
1608030482000,1011540036,10003420,499712,Comunidade Heliópolis,116591721,753,9126912
1608029501000,1011978188,10003857,1997389,Comunidade Jacarezinho,117146931,250,9747226
