timestamp,skyfiiId,venueId,bytesUp,venueName,deviceId,duration,bytesDown
1608394435000,1012025703,10003420,488448,Comunidade Heliópolis,117207233,640,23427072
1608393423000,1011527111,10003742,821605,Comunidade Paraisópolis,116574986,1801,4881184
