timestamp,skyfiiId,venueId,bytesUp,venueName,deviceId,duration,bytesDown
1608483393000,1011615672,10003779,1700695,Comunidade Rocinha,116687474,1801,12519187
1608481482000,1011784408,10004103,3721216,Comunidade Sol Nascente 02,116903413,3602,20519936
