timestamp,skyfiiId,venueId,bytesUp,venueName,deviceId,duration,bytesDown
1608475263000,1012154594,10004103,1477632,Comunidade Sol Nascente 02,117372215,1713,27759616
1608475247000,1011777454,10003963,2289350,Comunidade Belém - BENGUI,116894319,1467,7270727
