timestamp,skyfiiId,venueId,bytesUp,venueName,deviceId,duration,bytesDown
1608443171000,1012108979,10003742,770122,Comunidade Paraisópolis,117313826,433,16603541
1608441967000,1011405161,10003742,1175845,Comunidade Paraisópolis,116922719,989,14979313
1608443197000,1011543699,10003742,23261448,Comunidade Paraisópolis,116861553,58,1122464
1608444465000,1012045767,10004102,1274880,Comunidade Sol Nascente 01,117233186,245,15690752
