timestamp,skyfiiId,venueId,bytesUp,venueName,deviceId,duration,bytesDown
1608256904000,1012059831,10004102,7525376,Comunidade Sol Nascente 01,117251264,3608,221483008
1608255944000,1011669747,10003967,47630499,Comunidade Belém - TELÉGRAFO,116757634,2888,115308836
