timestamp,skyfiiId,venueId,bytesUp,venueName,deviceId,duration,bytesDown
1608068209000,1011737651,10003831,69561,Comunidade Maré 2,116844485,1814,384103
1608069528000,1012083893,10003420,271360,Comunidade Heliópolis,117281749,407,514048
