timestamp,skyfiiId,venueId,bytesUp,venueName,deviceId,duration,bytesDown
1608598975000,1012009862,10003779,3772214,Comunidade Rocinha,117187293,1304,75369076
1608598977000,1012181616,10003967,1400407,Comunidade Belém - TELÉGRAFO,117407139,1812,11108045
