timestamp,skyfiiId,venueId,bytesUp,venueName,deviceId,duration,bytesDown
1608137117000,1011988924,10003966,332049,Comunidade Belém - JURUNAS,117160550,1639,4009682
1608138806000,1012100210,10003964,8860397,Comunidade Belém - CABANAGEM,117302365,34,138630776
