timestamp,skyfiiId,venueId,bytesUp,venueName,deviceId,duration,bytesDown
1608338854000,1011964584,10004069,959375,Comunidade Capão Redondo,117129529,1054,6843551
1608338771000,1011504582,10003779,583430,Comunidade Rocinha,116546730,37,4213748
