timestamp,skyfiiId,venueId,bytesUp,venueName,deviceId,duration,bytesDown
1608421357000,1011617843,10003966,816667,Comunidade Belém - JURUNAS,116690373,1180,19329231
1608422826000,1011573508,10003963,3115737,Comunidade Belém - BENGUI,116633699,1807,67837874
