timestamp,skyfiiId,venueId,bytesUp,venueName,deviceId,duration,bytesDown
1608353584000,1012059831,10004102,7392256,Comunidade Sol Nascente 01,117251264,3602,304450560
1608355694000,1011576680,10003964,4357889,Comunidade Belém - CABANAGEM,116637378,1803,21526812
1608355444000,1011854466,10003792,1425855,Comunidade Maré,117021507,1811,24983088
1608353656000,1012049138,10004102,103284736,Comunidade Sol Nascente 01,117237214,3612,51842048
1608355608000,1012107597,10003742,42185061,Comunidade Paraisópolis,117312112,1054,10414323
