timestamp,skyfiiId,venueId,bytesUp,venueName,deviceId,duration,bytesDown
1608526757000,1012030142,10003792,2456575,Comunidade Maré,117213123,1700,38203983
1608526654000,1012049138,10004102,10838016,Comunidade Sol Nascente 01,117237214,3601,389180416
