timestamp,skyfiiId,venueId,bytesUp,venueName,deviceId,duration,bytesDown
1608119264000,1011978240,10003963,708501,Comunidade Belém - BENGUI,117146985,463,2383695
1608119741000,1012097532,10004069,2669520,Comunidade Capão Redondo,117298980,2,64110921
