timestamp,skyfiiId,venueId,bytesUp,venueName,deviceId,duration,bytesDown
1608078949000,1011629357,10004100,1778257,Comunidade Jacarezinho 01,116965348,1813,31203583
1608077437000,1011563794,10003963,1679920,Comunidade Belém - BENGUI,116621586,1387,12712013
