timestamp,skyfiiId,venueId,bytesUp,venueName,deviceId,duration,bytesDown
1608225989000,1012036511,10003831,711871,Comunidade Maré 2,117220995,39,4633532
1608226373000,1011868882,10003779,12943018,Comunidade Rocinha,117008811,116,512813634
