timestamp,skyfiiId,venueId,bytesUp,venueName,deviceId,duration,bytesDown
1608320375000,1012112873,10004069,559753,Comunidade Capão Redondo,117318484,258,9079420
1608320602000,1011988924,10003966,1737447,Comunidade Belém - JURUNAS,117160550,1059,16360835
