timestamp,skyfiiId,venueId,bytesUp,venueName,deviceId,duration,bytesDown
1608312780000,1012101085,10004100,5494084,Comunidade Jacarezinho 01,117303552,680,141587201
1608312631000,1011564955,10004100,4645060,Comunidade Jacarezinho 01,116623074,1812,49984471
