timestamp,skyfiiId,venueId,bytesUp,venueName,deviceId,duration,bytesDown
1608176236000,1011564955,10004100,0,Comunidade Jacarezinho 01,116623074,0,0
1608176530000,1011988924,10003966,3697589,Comunidade Belém - JURUNAS,117160550,1809,35263723
1608174750000,1012100210,10003964,3295977,Comunidade Belém - CABANAGEM,117302365,1504,140946901
