timestamp,skyfiiId,venueId,bytesUp,venueName,deviceId,duration,bytesDown
1608587292000,1012119270,10003779,24886062,Comunidade Rocinha,117326984,1535,78311530
1608590707000,1011601466,10003420,4392960,Comunidade Heliópolis,116669713,3602,101787648
