timestamp,skyfiiId,venueId,bytesUp,venueName,deviceId,duration,bytesDown
1608215256000,1012111594,10004069,663387,Comunidade Capão Redondo,117316850,764,13734429
1608215918000,1011575774,10003963,58300,Comunidade Belém - BENGUI,116636240,144,111670
