timestamp,skyfiiId,venueId,bytesUp,venueName,deviceId,duration,bytesDown
1608023112000,1011773459,10003420,570368,Comunidade Heliópolis,116889557,605,6230016
1608022448000,1011540036,10003420,1358848,Comunidade Heliópolis,116591721,1006,24881152
