timestamp,skyfiiId,venueId,bytesUp,venueName,deviceId,duration,bytesDown
1608114922000,1012014461,10004101,1525190,Comunidade Jacarezinho 02,117192900,1801,20675619
1608116356000,1011813403,10003420,271360,Comunidade Heliópolis,116939632,283,1676288
