timestamp,skyfiiId,venueId,bytesUp,venueName,deviceId,duration,bytesDown
1608331906000,1012089329,10004101,0,Comunidade Jacarezinho 02,117292858,0,0
1608332014000,1011573366,10004100,2237309,Comunidade Jacarezinho 01,117111198,489,14126519
