timestamp,skyfiiId,venueId,bytesUp,venueName,deviceId,duration,bytesDown
1608480580000,1011820661,10004069,13573959,Comunidade Capão Redondo,116948740,869,653086983
1608479735000,1011637779,10003963,1044526,Comunidade Belém - BENGUI,116716233,625,8430928
