timestamp,skyfiiId,venueId,bytesUp,venueName,deviceId,duration,bytesDown
1608083882000,1012009862,10003779,11154161,Comunidade Rocinha,117187293,1175,278437240
1608081700000,1012059831,10004102,29683712,Comunidade Sol Nascente 01,117251264,3612,360156160
1608085017000,1012037768,10003420,249856,Comunidade Heliópolis,117222680,478,7470080
1608083755000,1011990814,10004100,2133900,Comunidade Jacarezinho 01,117162682,1808,23943743
1608082446000,1012096159,10004069,1987143,Comunidade Capão Redondo,117297482,1026,36654350
