timestamp,skyfiiId,venueId,bytesUp,venueName,deviceId,duration,bytesDown
1608119236000,1011965287,10004069,1551503,Comunidade Capão Redondo,117130325,1393,15045839
1608121246000,1011540036,10003420,656384,Comunidade Heliópolis,116591721,1146,2061312
