timestamp,skyfiiId,venueId,bytesUp,venueName,deviceId,duration,bytesDown
1608381285000,1012024320,10003966,3080772,Comunidade Belém - JURUNAS,117205400,95,190586175
1608380807000,1012124048,10003831,61892,Comunidade Maré 2,117333018,359,308929
