timestamp,skyfiiId,venueId,bytesUp,venueName,deviceId,duration,bytesDown
1608034920000,1011918743,10003806,6068224,Comunidade Sol Nascente,117079033,3292,108906496
1608036566000,1012085174,10003806,0,Comunidade Sol Nascente,117283176,0,0
