timestamp,skyfiiId,venueId,bytesUp,venueName,deviceId,duration,bytesDown
1608357232000,1011799793,10003420,4333568,Comunidade Heliópolis,116922887,1098,17807360
1608356170000,1011848936,10004100,701314,Comunidade Jacarezinho 01,116983330,491,4583665
1608356718000,1011564955,10004100,2276629,Comunidade Jacarezinho 01,116623074,1082,13355892
