timestamp,skyfiiId,venueId,bytesUp,venueName,deviceId,duration,bytesDown
1608605735000,1011859245,10003792,5996301,Comunidade Maré,117126667,383,137349760
1608605758000,1012024320,10003966,1867627,Comunidade Belém - JURUNAS,117205400,1813,46827281
