timestamp,skyfiiId,venueId,bytesUp,venueName,deviceId,duration,bytesDown
1608178355000,1011876697,10003779,4722607,Comunidade Rocinha,117019067,1813,156723347
1608177801000,1011637779,10003963,764961,Comunidade Belém - BENGUI,116716233,323,8432538
