timestamp,skyfiiId,venueId,bytesUp,venueName,deviceId,duration,bytesDown
1608440693000,1011729180,10003742,238205,Comunidade Paraisópolis,116833771,146,5832719
1608439642000,1011669623,10003742,795825,Comunidade Paraisópolis,117188384,1033,6131243
1608440703000,1012114678,10003792,17008347,Comunidade Maré,117320823,251,168857999
