timestamp,skyfiiId,venueId,bytesUp,venueName,deviceId,duration,bytesDown
1608596217000,1012181043,10003742,7914177,Comunidade Paraisópolis,117406396,424,141658948
1608596052000,1011575774,10003963,3605275,Comunidade Belém - BENGUI,116636240,139,35220493
