timestamp,skyfiiId,venueId,bytesUp,venueName,deviceId,duration,bytesDown
1608286763000,1011836578,10004069,6925729,Comunidade Capão Redondo,117022100,1255,121036486
1608288781000,1012124381,10003420,751616,Comunidade Heliópolis,117333380,828,10056704
