timestamp,skyfiiId,venueId,bytesUp,venueName,deviceId,duration,bytesDown
1608349750000,1011626020,10004100,2777000,Comunidade Jacarezinho 01,116700789,785,10642716
1608349533000,1011644402,10004100,1857474,Comunidade Jacarezinho 01,117185896,1002,22401455
1608349408000,1011964730,10003967,1598793,Comunidade Belém - TELÉGRAFO,117129704,1189,53333985
