timestamp,skyfiiId,venueId,bytesUp,venueName,deviceId,duration,bytesDown
1608246678000,1012009862,10003779,7434767,Comunidade Rocinha,117187293,1803,98370891
1608246639000,1012021439,10003831,1545299,Comunidade Maré 2,117202071,1801,20342637
