timestamp,skyfiiId,venueId,bytesUp,venueName,deviceId,duration,bytesDown
1608353904000,1012125241,10003963,3289516,Comunidade Belém - BENGUI,117334288,1802,81743812
1608353701000,1012107597,10003742,638339,Comunidade Paraisópolis,117312112,389,3199360
1608351787000,1011641174,10003966,631589,Comunidade Belém - JURUNAS,116720285,907,3352539
