timestamp,skyfiiId,venueId,bytesUp,venueName,deviceId,duration,bytesDown
1608513074000,1012090364,10003967,53490,Comunidade Belém - TELÉGRAFO,117289994,1011,164888
1608512954000,1012114678,10003792,6366730,Comunidade Maré,117320823,13,57611849
