timestamp,skyfiiId,venueId,bytesUp,venueName,deviceId,duration,bytesDown
1608164686000,1012108177,10003967,1711083,Comunidade Belém - TELÉGRAFO,117312853,304,34899997
1608165017000,1011753648,10003967,4049487,Comunidade Belém - TELÉGRAFO,116864528,1619,20142304
1608165143000,1012051073,10004102,994304,Comunidade Sol Nascente 01,117239805,1712,3331072
