timestamp,skyfiiId,venueId,bytesUp,venueName,deviceId,duration,bytesDown
1608278843000,1012114678,10003792,20344035,Comunidade Maré,117320823,132,417000096
1608277327000,1011889794,10003742,1556176,Comunidade Paraisópolis,117036117,1271,26314675
