timestamp,skyfiiId,venueId,bytesUp,venueName,deviceId,duration,bytesDown
1608264928000,1012101085,10004100,12418475,Comunidade Jacarezinho 01,117303552,1811,40084094
1608263591000,1011957433,10004069,2081484,Comunidade Capão Redondo,117120471,1327,57160586
