timestamp,skyfiiId,venueId,bytesUp,venueName,deviceId,duration,bytesDown
1608455936000,1011765998,10003742,57470614,Comunidade Paraisópolis,116880229,548,2068410
1608458094000,1011670107,10003420,98304,Comunidade Heliópolis,116758032,391,320512
