timestamp,skyfiiId,venueId,bytesUp,venueName,deviceId,duration,bytesDown
1608337611000,1012071196,10004100,2942981,Comunidade Jacarezinho 01,117265789,1807,49457532
1608337615000,1011777454,10003963,5009328,Comunidade Belém - BENGUI,116894319,1801,87553520
