timestamp,skyfiiId,venueId,bytesUp,venueName,deviceId,duration,bytesDown
1608161090000,1011745051,10003779,3238275,Comunidade Rocinha,116853823,687,36518108
1608160604000,1012100210,10003964,1799917,Comunidade Belém - CABANAGEM,117302365,310,67489561
