timestamp,skyfiiId,venueId,bytesUp,venueName,deviceId,duration,bytesDown
1608413618000,1012148011,10003966,977307,Comunidade Belém - JURUNAS,117364031,671,40736475
1608413656000,1011575774,10003963,1596455,Comunidade Belém - BENGUI,116636240,1003,116200720
