timestamp,skyfiiId,venueId,bytesUp,venueName,deviceId,duration,bytesDown
1608036319000,1012085144,10004069,1292187,Comunidade Capão Redondo,117283141,549,5020325
1608038140000,1011639960,10003420,975872,Comunidade Heliópolis,116718752,405,25360384
