timestamp,skyfiiId,venueId,bytesUp,venueName,deviceId,duration,bytesDown
1608326117000,1011956337,10004069,0,Comunidade Capão Redondo,117118705,0,0
1608325805000,1011964730,10003967,75112,Comunidade Belém - TELÉGRAFO,117129704,136,1253367
