timestamp,skyfiiId,venueId,bytesUp,venueName,deviceId,duration,bytesDown
1608001404000,1011988924,10003966,3194397,Comunidade Belém - JURUNAS,117160550,1799,32856526
1607999411000,1011601466,10003420,3894272,Comunidade Heliópolis,116669713,3612,69757952
