timestamp,skyfiiId,venueId,bytesUp,venueName,deviceId,duration,bytesDown
1608495731000,1012105765,10003779,1013217,Comunidade Rocinha,117309797,443,10734559
1608495795000,1011937725,10004100,4206848,Comunidade Jacarezinho 01,117095732,1811,84963969
