timestamp,skyfiiId,venueId,bytesUp,venueName,deviceId,duration,bytesDown
1608156778000,1012105765,10003779,3101558,Comunidade Rocinha,117309797,1145,32318839
1608156809000,1012105777,10003779,2042440,Comunidade Rocinha,117309810,1320,20131390
