timestamp,skyfiiId,venueId,bytesUp,venueName,deviceId,duration,bytesDown
1608165759000,1012108360,10003967,636852,Comunidade Belém - TELÉGRAFO,117313082,1805,7664479
1608165033000,1012032067,10003792,258659,Comunidade Maré,117215609,379,1545594
