timestamp,skyfiiId,venueId,bytesUp,venueName,deviceId,duration,bytesDown
1608385308000,1011641649,10003966,2157744,Comunidade Belém - JURUNAS,116720901,1809,97133460
1608386453000,1011622053,10003966,1173639,Comunidade Belém - JURUNAS,116695568,912,5479229
