timestamp,skyfiiId,venueId,bytesUp,venueName,deviceId,duration,bytesDown
1608445971000,1011805344,10003831,258232,Comunidade Maré 2,116929981,991,804503
1608445966000,1011889794,10003742,1332206,Comunidade Paraisópolis,117036117,288,17100705
