timestamp,skyfiiId,venueId,bytesUp,venueName,deviceId,duration,bytesDown
1608229678000,1011923143,10004102,2024448,Comunidade Sol Nascente 01,117077993,3602,9901056
1608231035000,1012106648,10003965,837679,Comunidade Belém - CONDOR,117310913,447,18308182
