timestamp,skyfiiId,venueId,bytesUp,venueName,deviceId,duration,bytesDown
1608483538000,1011805344,10003831,393520,Comunidade Maré 2,116929981,809,1422317
1608482124000,1012049138,10004102,12289024,Comunidade Sol Nascente 01,117237214,3601,291441664
