timestamp,skyfiiId,venueId,bytesUp,venueName,deviceId,duration,bytesDown
1608209474000,1011822759,10003967,1007287,Comunidade Belém - TELÉGRAFO,116951156,603,26883760
1608208875000,1012032067,10003792,8080644,Comunidade Maré,117215609,1815,9454516
