timestamp,skyfiiId,venueId,bytesUp,venueName,deviceId,duration,bytesDown
1608423842000,1011901422,10003742,2017684,Comunidade Paraisópolis,117050891,1533,48211384
1608423923000,1011854466,10003792,2185871,Comunidade Maré,117021507,1357,24639501
