timestamp,skyfiiId,venueId,bytesUp,venueName,deviceId,duration,bytesDown
1608430768000,1011949549,10003831,611022,Comunidade Maré 2,117110452,294,5835159
1608430862000,1012085929,10004101,0,Comunidade Jacarezinho 02,117284117,0,0
