timestamp,skyfiiId,venueId,bytesUp,venueName,deviceId,duration,bytesDown
1608234706000,1012051073,10004102,2345984,Comunidade Sol Nascente 01,117239805,2157,7303168
1608234247000,1011956337,10004069,347714,Comunidade Capão Redondo,117118705,974,4007561
