timestamp,skyfiiId,venueId,bytesUp,venueName,deviceId,duration,bytesDown
1608054797000,1012077172,10003966,15625706,Comunidade Belém - JURUNAS,117273156,1801,47047818
1608054077000,1012089017,10004101,207205,Comunidade Jacarezinho 02,117288181,334,2217307
