timestamp,skyfiiId,venueId,bytesUp,venueName,deviceId,duration,bytesDown
1608562591000,1011788903,10003963,4156352,Comunidade Belém - BENGUI,116908760,1812,80942935
1608562699000,1011836578,10004069,4655217,Comunidade Capão Redondo,117022100,264,31512464
