timestamp,skyfiiId,venueId,bytesUp,venueName,deviceId,duration,bytesDown
1608385924000,1012022508,10004100,1525085,Comunidade Jacarezinho 01,117203229,387,10060118
1608384043000,1012059831,10004102,1571840,Comunidade Sol Nascente 01,117251264,3606,29568000
