timestamp,skyfiiId,venueId,bytesUp,venueName,deviceId,duration,bytesDown
1608460767000,1012014461,10004101,408316,Comunidade Jacarezinho 02,117192900,1800,1929729
1608460658000,1011983921,10003779,0,Comunidade Rocinha,117154322,0,0
