timestamp,skyfiiId,venueId,bytesUp,venueName,deviceId,duration,bytesDown
1608244183000,1011850284,10003420,605184,Comunidade Heliópolis,116984789,491,55012352
1608242585000,1011753648,10003967,1010611,Comunidade Belém - TELÉGRAFO,116864528,325,12257625
