timestamp,skyfiiId,venueId,bytesUp,venueName,deviceId,duration,bytesDown
1608086408000,1012088398,10004101,1091050,Comunidade Jacarezinho 02,117287346,1812,8226834
1608085163000,1011964730,10003967,684823,Comunidade Belém - TELÉGRAFO,117129704,1072,16269625
