timestamp,skyfiiId,venueId,bytesUp,venueName,deviceId,duration,bytesDown
1608111410000,1011638606,10003420,1153024,Comunidade Heliópolis,116717241,1103,5656576
1608110910000,1012024320,10003966,1579787,Comunidade Belém - JURUNAS,117205400,1805,36000377
