timestamp,skyfiiId,venueId,bytesUp,venueName,deviceId,duration,bytesDown
1608513355000,1011579820,10003779,345575,Comunidade Rocinha,116641447,636,1731323
1608512796000,1011554743,10003420,286720,Comunidade Heliópolis,116610082,3153,365568
1608514263000,1011761915,10003779,501158,Comunidade Rocinha,116874916,421,1384084
