timestamp,skyfiiId,venueId,bytesUp,venueName,deviceId,duration,bytesDown
1608160089000,1012105912,10003963,6900114,Comunidade Belém - BENGUI,117309994,1803,72229775
1608158050000,1012077172,10003966,5172474,Comunidade Belém - JURUNAS,117273156,1805,107577979
