timestamp,skyfiiId,venueId,bytesUp,venueName,deviceId,duration,bytesDown
1608383058000,1011639960,10003420,2755584,Comunidade Heliópolis,116718752,872,43840512
1608382312000,1011868882,10003779,1322664,Comunidade Rocinha,117008811,520,23891584
