timestamp,skyfiiId,venueId,bytesUp,venueName,deviceId,duration,bytesDown
1608354513000,1011799793,10003420,327680,Comunidade Heliópolis,116922887,595,2837504
1608353524000,1011854466,10003792,8417926,Comunidade Maré,117021507,1811,213383948
1608353448000,1011799579,10004100,8621827,Comunidade Jacarezinho 01,117217875,1811,11447555
