timestamp,skyfiiId,venueId,bytesUp,venueName,deviceId,duration,bytesDown
1608367690000,1011584351,10003420,4579328,Comunidade Heliópolis,117019015,1591,209430528
1608367564000,1012106648,10003965,58221521,Comunidade Belém - CONDOR,117310913,279,97974592
