timestamp,skyfiiId,venueId,bytesUp,venueName,deviceId,duration,bytesDown
1608269324000,1011615672,10003779,956337,Comunidade Rocinha,117332681,790,954259
1608271367000,1011693244,10003742,3891497,Comunidade Paraisópolis,116787672,420,34074932
1608271226000,1011854466,10003792,15251977,Comunidade Maré,117021507,958,4664790
