timestamp,skyfiiId,venueId,bytesUp,venueName,deviceId,duration,bytesDown
1608416502000,1012033262,10003831,3622177,Comunidade Maré 2,117217141,407,55976343
1608416016000,1012051073,10004102,4151296,Comunidade Sol Nascente 01,117239805,1937,70561792
