timestamp,skyfiiId,venueId,bytesUp,venueName,deviceId,duration,bytesDown
1608533681000,1011978188,10004101,6437114,Comunidade Jacarezinho 02,117146931,769,132233830
1608533638000,1012107597,10003742,16310609,Comunidade Paraisópolis,117312112,1805,11793361
