timestamp,skyfiiId,venueId,bytesUp,venueName,deviceId,duration,bytesDown
1608055026000,1011641649,10003966,136256,Comunidade Belém - JURUNAS,116720901,1422,1252995
1608054848000,1011988924,10003966,1638625,Comunidade Belém - JURUNAS,117160550,1810,25335564
