timestamp,skyfiiId,venueId,bytesUp,venueName,deviceId,duration,bytesDown
1608071424000,1011615672,10003779,2792832,Comunidade Rocinha,116687474,1001,19432668
1608074437000,1011949756,10004103,335384576,Comunidade Sol Nascente 02,117110712,3610,554231808
1608072801000,1011622197,10003966,904239,Comunidade Belém - JURUNAS,116695736,481,2831988
