timestamp,skyfiiId,venueId,bytesUp,venueName,deviceId,duration,bytesDown
1608399383000,1012024320,10003966,4990922,Comunidade Belém - JURUNAS,117205400,1804,95781930
1608399474000,1012022508,10004100,927471,Comunidade Jacarezinho 01,117203229,13,5857559
