timestamp,skyfiiId,venueId,bytesUp,venueName,deviceId,duration,bytesDown
1608484006000,1011655238,10003966,42132058,Comunidade Belém - JURUNAS,116738806,1815,27630965
1608482325000,1011854466,10003792,447494,Comunidade Maré,117021507,1364,2151406
