timestamp,skyfiiId,venueId,bytesUp,venueName,deviceId,duration,bytesDown
1608178420000,1011964730,10003967,669736,Comunidade Belém - TELÉGRAFO,117129704,1290,7835455
1608179750000,1012019071,10003967,8441583,Comunidade Belém - TELÉGRAFO,117200246,1160,19730350
