timestamp,skyfiiId,venueId,bytesUp,venueName,deviceId,duration,bytesDown
1608435171000,1011805344,10003831,200764,Comunidade Maré 2,116929981,100,2907674
1608435479000,1011564955,10004100,1253613,Comunidade Jacarezinho 01,117173463,1815,18305265
