timestamp,skyfiiId,venueId,bytesUp,venueName,deviceId,duration,bytesDown
1608331402000,1011630652,10003966,593961,Comunidade Belém - JURUNAS,116706689,531,6237824
1608332048000,1011961965,10004100,2126330,Comunidade Jacarezinho 01,117126255,520,16844266
