duration,timestamp,skyfiiId,precincts,venueId,venueName,zones,deviceId,spaces
707,1608669055000,1011463918,[],10003742,Comunidade Paraisópolis,[],116494652,[]
606,1608668711000,1011723830,[],10003420,Comunidade Heliópolis,[],116826664,[]
7414,1608661521000,1011630833,[],10003420,Comunidade Heliópolis,[],116706906,[]
3879,1608665896000,1011553086,[],10003742,Comunidade Paraisópolis,[],116607880,[]
