duration,timestamp,skyfiiId,precincts,venueId,venueName,zones,deviceId,spaces
2481,1608611667000,1012037768,[],10003420,Comunidade Heliópolis,[],117222680,[]
11470,1608602778000,1011081640,[],10003420,Comunidade Heliópolis,[],116014576,[]
