duration,timestamp,skyfiiId,precincts,venueId,venueName,zones,deviceId,spaces
875,1607910933000,1011890718,[],10003742,Comunidade Paraisópolis,[],117037157,[]
700,1607912006000,1011929983,[],10003742,Comunidade Paraisópolis,[],117086010,[]
