duration,timestamp,skyfiiId,precincts,venueId,venueName,zones,deviceId,spaces
890,1607881737000,1011694149,[],10003742,Comunidade Paraisópolis,[],116788838,[]
5032,1607877559000,1011850284,[],10003420,Comunidade Heliópolis,[],116984789,[]
6166,1607876133000,1011990814,[],10003857,Comunidade Jacarezinho,[],117162682,[]
1710,1607881886000,1011677686,[],10003420,Comunidade Heliópolis,[],116767879,[]
1815,1607882104000,1012021291,[],10003742,Comunidade Paraisópolis,[],117201907,[]
3208,1607881401000,1011573412,[],10003857,Comunidade Jacarezinho,[],116633580,[]
601,1607883882000,1011625590,[],10003857,Comunidade Jacarezinho,[],116700196,[]
836,1607883915000,1011747487,[],10003420,Comunidade Heliópolis,[],116856763,[]
1181,1607883625000,1012030217,[],10003792,Comunidade Maré,[],117213222,[]
1701,1607883433000,1011723830,[],10003420,Comunidade Heliópolis,[],116826664,[]
2362,1607883136000,1011651554,[],10003420,Comunidade Heliópolis,[],116733784,[]
3791,1607882265000,1011554743,[],10003420,Comunidade Heliópolis,[],116610082,[]
215,1607885920000,1011626020,[],10003857,Comunidade Jacarezinho,[],116700789,[]
3510,1607882861000,1011554743,[],10003420,Comunidade Heliópolis,[],116618130,[]
12448,1607874348000,1011571744,[],10003420,Comunidade Heliópolis,[],116631403,[]
650,1607886173000,1011950168,[],10003420,Comunidade Heliópolis,[],117111248,[]
6341,1607880822000,1011724192,[],10003420,Comunidade Heliópolis,[],116827166,[]
409,1607885892000,1012058247,[],10003857,Comunidade Jacarezinho,[],117249394,[]
1756,1607885916000,1011854466,[],10003792,Comunidade Maré,[],116990207,[]
8808,1607878956000,1011905644,[],10003792,Comunidade Maré,[],117055915,[]
3656,1607883715000,1011918798,[],10003857,Comunidade Jacarezinho,[],117071873,[]
4977,1607882113000,1011643472,[],10003857,Comunidade Jacarezinho,[],116723334,[]
2704,1607885739000,1011677686,[],10003420,Comunidade Heliópolis,[],116767879,[]
1263,1607887351000,1011929983,[],10003742,Comunidade Paraisópolis,[],117086010,[]
3777,1607884867000,1012030242,[],10003792,Comunidade Maré,[],117213257,[]
1979,1607886605000,1011486969,[],10003779,Comunidade Rocinha,[],116524324,[]
2401,1607886538000,1011566605,[],10003857,Comunidade Jacarezinho,[],116624880,[]
8465,1607880367000,1011630833,[],10003420,Comunidade Heliópolis,[],116706906,[]
1829,1607886675000,1011574127,[],10003857,Comunidade Jacarezinho,[],116994328,[]
693,1607888855000,1012065354,[],10003420,Comunidade Heliópolis,[],117258419,[]
869,1607889308000,1011533068,[],10003420,Comunidade Heliópolis,[],116582850,[]
645,1607889526000,1011892346,[],10003966,Comunidade Belém - JURUNAS,[],117039223,[]
2487,1607888007000,1011723830,[],10003420,Comunidade Heliópolis,[],116826664,[]
5096,1607885244000,1011850284,[],10003420,Comunidade Heliópolis,[],116984789,[]
1256,1607889642000,1011918798,[],10003857,Comunidade Jacarezinho,[],117071873,[]
2192,1607889302000,1011724192,[],10003420,Comunidade Heliópolis,[],116827166,[]
1358,1607890971000,1011929983,[],10003742,Comunidade Paraisópolis,[],117086010,[]
1870,1607890555000,1011677686,[],10003420,Comunidade Heliópolis,[],116767879,[]
2270,1607890269000,1011660415,[],10003420,Comunidade Heliópolis,[],117259515,[]
2292,1607890269000,1011660415,[],10003420,Comunidade Heliópolis,[],116745777,[]
9345,1607883422000,1011287396,[],10003779,Comunidade Rocinha,[],116274127,[]
2788,1607890013000,1011826604,[],10003857,Comunidade Jacarezinho,[],116955956,[]
6556,1607886966000,1010723241,[],10003420,Comunidade Heliópolis,[],115569430,[]
1910,1607891856000,1011850398,[],10003420,Comunidade Heliópolis,[],116984913,[]
1850,1607892706000,1011950168,[],10003420,Comunidade Heliópolis,[],117111248,[]
6419,1607888568000,1011554743,[],10003420,Comunidade Heliópolis,[],116610082,[]
783,1607892817000,1011486345,[],10003779,Comunidade Rocinha,[],116523479,[]
302,1607894784000,1011634078,[],10003857,Comunidade Jacarezinho,[],116711218,[]
3321,1607891910000,1012024320,[],10003966,Comunidade Belém - JURUNAS,[],117205400,[]
2021,1607891965000,1011486240,[],10003779,Comunidade Rocinha,[],116523340,[]
1586,1607894438000,1011677686,[],10003420,Comunidade Heliópolis,[],116767879,[]
1248,1607895296000,1011519449,[],10003779,Comunidade Rocinha,[],116565371,[]
434,1607896707000,1011964970,[],10003963,Comunidade Belém - BENGUI,[],117129988,[]
146,1607896454000,1011579205,[],10003857,Comunidade Jacarezinho,[],116640621,[]
2183,1607894926000,1011529161,[],10003779,Comunidade Rocinha,[],116577803,[]
660,1607896621000,1011910789,[],10003792,Comunidade Maré,[],117062534,[]
668,1607897007000,1011533068,[],10003420,Comunidade Heliópolis,[],116582850,[]
2765,1607894822000,1011568799,[],10003963,Comunidade Belém - BENGUI,[],116627522,[]
2516,1607895187000,1011493317,[],10003779,Comunidade Rocinha,[],116532177,[]
5733,1607892366000,1011723830,[],10003420,Comunidade Heliópolis,[],116826664,[]
