duration,timestamp,skyfiiId,precincts,venueId,venueName,zones,deviceId,spaces
129,1607980301000,1011700576,[],10003857,Comunidade Jacarezinho,[],116796946,[]
2046,1607978432000,1011621282,[],10003857,Comunidade Jacarezinho,[],116694693,[]
