duration,timestamp,skyfiiId,precincts,venueId,venueName,zones,deviceId,spaces
3781,1608391388000,1012141204,[],10004100,Comunidade Jacarezinho 01,[],117354755,[]
251,1608390842000,1011587372,[],10004100,Comunidade Jacarezinho 01,[],116651112,[]
