duration,timestamp,skyfiiId,precincts,venueId,venueName,zones,deviceId,spaces
6047,1608203806000,1011517399,[],10003742,Comunidade Paraisópolis,[],116562704,[]
5073,1608204798000,1011714260,[],10003742,Comunidade Paraisópolis,[],116814489,[]
