duration,timestamp,skyfiiId,precincts,venueId,venueName,zones,deviceId,spaces
4787,1608050218000,1012037801,[],10003420,Comunidade Heliópolis,[],117222727,[]
18684,1608036387000,1011554743,[],10003420,Comunidade Heliópolis,[],116610082,[]
