duration,timestamp,skyfiiId,precincts,venueId,venueName,zones,deviceId,spaces
16691,1608164022000,1011081640,[],10003420,Comunidade Heliópolis,[],116014576,[]
1398,1608179221000,1011890718,[],10003742,Comunidade Paraisópolis,[],117037157,[]
