duration,timestamp,skyfiiId,precincts,venueId,venueName,zones,deviceId,spaces
3568,1608258145000,1011918798,[],10004100,Comunidade Jacarezinho 01,[],117071873,[]
2617,1608259106000,1011613212,[],10004100,Comunidade Jacarezinho 01,[],116684269,[]
