duration,timestamp,skyfiiId,precincts,venueId,venueName,zones,deviceId,spaces
195,1608417642000,1012024320,[],10003966,Comunidade Belém - JURUNAS,[],117205400,[]
11864,1608406348000,1011517399,[],10003742,Comunidade Paraisópolis,[],116562704,[]
