duration,timestamp,skyfiiId,precincts,venueId,venueName,zones,deviceId,spaces
3119,1608063079000,1011554743,[],10003420,Comunidade Heliópolis,[],116610082,[]
1054,1608064743000,1011571744,[],10003420,Comunidade Heliópolis,[],116631403,[]
