duration,timestamp,skyfiiId,precincts,venueId,venueName,zones,deviceId,spaces
9197,1608550822000,1011533068,[],10003420,Comunidade Heliópolis,[],116582850,[]
1435,1608558472000,1011541020,[],10003420,Comunidade Heliópolis,[],116592802,[]
