duration,timestamp,skyfiiId,precincts,venueId,venueName,zones,deviceId,spaces
7976,1608227242000,1011868882,[],10003779,Comunidade Rocinha,[],117008811,[]
3568,1608231861000,1012065221,[],10003779,Comunidade Rocinha,[],117258244,[]
