duration,timestamp,skyfiiId,precincts,venueId,venueName,zones,deviceId,spaces
3937,1608220431000,1011931294,[],10004102,Comunidade Sol Nascente 01,[],117087447,[]
3037,1608220119000,1011596321,[],10004102,Comunidade Sol Nascente 01,[],116662977,[]
