duration,timestamp,skyfiiId,precincts,venueId,venueName,zones,deviceId,spaces
1389,1608038481000,1011821911,[],10003420,Comunidade Heliópolis,[],116950217,[]
2754,1608037225000,1011081640,[],10003420,Comunidade Heliópolis,[],116014576,[]
