duration,timestamp,skyfiiId,precincts,venueId,venueName,zones,deviceId,spaces
1900,1608220156000,1011540036,[],10003420,Comunidade Heliópolis,[],116591721,[]
2984,1608219057000,1012112840,[],10003420,Comunidade Heliópolis,[],117318440,[]
