duration,timestamp,skyfiiId,precincts,venueId,venueName,zones,deviceId,spaces
749,1608224821000,1011799762,[],10004100,Comunidade Jacarezinho 01,[],116922852,[]
1898,1608223215000,1011564955,[],10004100,Comunidade Jacarezinho 01,[],116694878,[]
