duration,timestamp,skyfiiId,precincts,venueId,venueName,zones,deviceId,spaces
1657,1608310049000,1011517399,[],10003742,Comunidade Paraisópolis,[],116562704,[]
6573,1608305395000,1011693690,[],10003742,Comunidade Paraisópolis,[],116788243,[]
