duration,timestamp,skyfiiId,precincts,venueId,venueName,zones,deviceId,spaces
3290,1608242187000,1011724192,[],10003420,Comunidade Heliópolis,[],116827166,[]
1338,1608244069000,1012120521,[],10003420,Comunidade Heliópolis,[],117328656,[]
