duration,timestamp,skyfiiId,precincts,venueId,venueName,zones,deviceId,spaces
7093,1608049850000,1011862237,[],10003420,Comunidade Heliópolis,[],116999925,[]
1545,1608055419000,1011723830,[],10003420,Comunidade Heliópolis,[],116826664,[]
