duration,timestamp,skyfiiId,precincts,venueId,venueName,zones,deviceId,spaces
2680,1608045848000,1011937097,[],10003420,Comunidade Heliópolis,[],117094892,[]
1732,1608046815000,1011723830,[],10003420,Comunidade Heliópolis,[],116826664,[]
1191,1608047074000,1012041910,[],10003420,Comunidade Heliópolis,[],117228251,[]
