duration,timestamp,skyfiiId,precincts,venueId,venueName,zones,deviceId,spaces
2128,1608250359000,1011587602,[],10004100,Comunidade Jacarezinho 01,[],116651418,[]
1511,1608250902000,1011626020,[],10004100,Comunidade Jacarezinho 01,[],116700789,[]
