duration,timestamp,skyfiiId,precincts,venueId,venueName,zones,deviceId,spaces
2900,1608212516000,1011515441,[],10003742,Comunidade Paraisópolis,[],116560202,[]
5991,1608209411000,1011890718,[],10003742,Comunidade Paraisópolis,[],117037157,[]
