timestamp,skyfiiId,venueId,venueName,deviceId
1607884741562,1012063848,10003742,Comunidade Paraisópolis,117256439
1607884904817,1011988924,10003966,Comunidade Belém - JURUNAS,117160550
1607884906709,1011959165,10004069,Comunidade Capão Redondo,117122449
1607884918046,1012049138,10003806,Comunidade Sol Nascente,117237214
1607885000178,1012027877,10003779,Comunidade Rocinha,117210074
1607885205008,1011850284,10003420,Comunidade Heliópolis,116984789
1607885360484,1011643472,10003857,Comunidade Jacarezinho,116723334
1607885577474,1011554743,10003420,Comunidade Heliópolis,116618130
1607885689728,1011641649,10003966,Comunidade Belém - JURUNAS,116720901
1607885691977,1012043485,10003806,Comunidade Sol Nascente,117230310
1607886027933,1011784408,10003806,Comunidade Sol Nascente,116903413
1607886155642,1011617959,10003779,Comunidade Rocinha,116690538
1607886239566,1012051073,10003806,Comunidade Sol Nascente,117239805
1607886663690,1012064461,10004069,Comunidade Capão Redondo,117257271
1607886905074,1011959165,10004069,Comunidade Capão Redondo,117122449
1607886951879,1011677686,10003420,Comunidade Heliópolis,116767879
1607887032649,1011896623,10003806,Comunidade Sol Nascente,117044914
1607887110428,1011574127,10003857,Comunidade Jacarezinho,116994328
1607887186420,1011978188,10003857,Comunidade Jacarezinho,117146931
1607887328631,1012064721,10004069,Comunidade Capão Redondo,117257595
1607887637020,1012064830,10004069,Comunidade Capão Redondo,117257739
1607887741205,1011494216,10003779,Comunidade Rocinha,116533407
1607888250943,1011788903,10003963,Comunidade Belém - BENGUI,116908760
1607888383206,1011957433,10004069,Comunidade Capão Redondo,117120471
1607888491654,1011564955,10003857,Comunidade Jacarezinho,117173463
1607888553032,1011554743,10003420,Comunidade Heliópolis,116610082
1607888638260,1011575774,10003963,Comunidade Belém - BENGUI,116636240
1607888693023,1011925173,10003967,Comunidade Belém - TELÉGRAFO,117080114
1607888732427,1012065221,10003779,Comunidade Rocinha,117258244
1607888820487,1011959165,10004069,Comunidade Capão Redondo,117122449
1607889058841,1011850284,10003420,Comunidade Heliópolis,116984789
1607889145299,1012065354,10003420,Comunidade Heliópolis,117258419
1607889225055,1011978188,10003857,Comunidade Jacarezinho,117146931
1607889328441,1012049138,10003806,Comunidade Sol Nascente,117237214
1607889378073,1011777454,10003963,Comunidade Belém - BENGUI,116894319
1607889523265,1012045767,10003806,Comunidade Sol Nascente,117233186
1607889854357,1011602491,10003779,Comunidade Rocinha,116841537
1607889974594,1011641649,10003966,Comunidade Belém - JURUNAS,116720901
1607890164427,1011784408,10003806,Comunidade Sol Nascente,116903413
1607890186566,1012045424,10003967,Comunidade Belém - TELÉGRAFO,117232773
1607890231814,1011788903,10003963,Comunidade Belém - BENGUI,116908760
1607890246823,1011660415,10003420,Comunidade Heliópolis,116745777
1607890508196,1011564955,10003857,Comunidade Jacarezinho,117173463
1607890509221,1011575774,10003963,Comunidade Belém - BENGUI,116636240
1607890670893,1011964970,10003963,Comunidade Belém - BENGUI,117129988
1607890806186,1011677686,10003420,Comunidade Heliópolis,116767879
1607891039255,1011959165,10004069,Comunidade Capão Redondo,117122449
1607891205718,1011777454,10003963,Comunidade Belém - BENGUI,116894319
1607891349687,1011978188,10003857,Comunidade Jacarezinho,117146931
1607891377833,1011964730,10003967,Comunidade Belém - TELÉGRAFO,117129704
1607891691580,1012024320,10003966,Comunidade Belém - JURUNAS,117205400
1607891797322,1011660415,10003420,Comunidade Heliópolis,117259515
1607891976289,1011568799,10003963,Comunidade Belém - BENGUI,116627522
1607892053298,1012045424,10003967,Comunidade Belém - TELÉGRAFO,117232773
1607892200558,1011896623,10003806,Comunidade Sol Nascente,117044914
1607892347521,1011632794,10003966,Comunidade Belém - JURUNAS,116709474
1607892389775,1011575774,10003963,Comunidade Belém - BENGUI,116636240
1607892407066,1011564955,10003857,Comunidade Jacarezinho,117173463
1607892433299,1011554743,10003420,Comunidade Heliópolis,116610082
1607892450675,1011993817,10003857,Comunidade Jacarezinho,117166566
1607892456177,1011641649,10003966,Comunidade Belém - JURUNAS,116720901
1607892536024,1012045767,10003806,Comunidade Sol Nascente,117233186
1607892866887,1011950168,10003420,Comunidade Heliópolis,117111248
1607892945324,1011850284,10003420,Comunidade Heliópolis,116984789
1607893058589,1011777454,10003963,Comunidade Belém - BENGUI,116894319
1607893126461,1012045767,10003806,Comunidade Sol Nascente,117233186
1607893940014,1012045424,10003967,Comunidade Belém - TELÉGRAFO,117232773
1607894168258,1011602491,10003779,Comunidade Rocinha,116841537
1607894270557,1011575774,10003963,Comunidade Belém - BENGUI,116636240
1607894477589,1011788903,10003963,Comunidade Belém - BENGUI,116908760
1607894500865,1011564955,10003857,Comunidade Jacarezinho,117173463
1607894590627,1011573366,10003857,Comunidade Jacarezinho,117111198
1607894721879,1011601466,10003420,Comunidade Heliópolis,116669713
1607894751462,1011677686,10003420,Comunidade Heliópolis,116767879
1607894922006,1011777454,10003963,Comunidade Belém - BENGUI,116894319
1607894922811,1011978188,10003857,Comunidade Jacarezinho,117146931
1607895386982,1011691470,10003742,Comunidade Paraisópolis,116785357
1607895442286,1012067243,10003742,Comunidade Paraisópolis,117260937
1607895522312,1011641649,10003966,Comunidade Belém - JURUNAS,116720901
1607895563565,1012043485,10003806,Comunidade Sol Nascente,117230310
1607895601998,1012060081,10003420,Comunidade Heliópolis,117251534
1607895856718,1011622197,10003966,Comunidade Belém - JURUNAS,116695736
1607896070427,1011853842,10003779,Comunidade Rocinha,116989368
1607896087330,1011963370,10004069,Comunidade Capão Redondo,117128014
1607896115121,1011896623,10003806,Comunidade Sol Nascente,117044914
1607896285003,1012045767,10003806,Comunidade Sol Nascente,117233186
1607896315264,1011788903,10003963,Comunidade Belém - BENGUI,116908760
1607896398527,1011957433,10004069,Comunidade Capão Redondo,117120471
1607896470051,1011579205,10003857,Comunidade Jacarezinho,116640621
1607896533171,1011659707,10003857,Comunidade Jacarezinho,117113297
1607896639827,1012051073,10003806,Comunidade Sol Nascente,117239805
1607896640657,1011564955,10003857,Comunidade Jacarezinho,117173463
1607896710097,1012067635,10003966,Comunidade Belém - JURUNAS,117261465
1607896804149,1011850284,10003420,Comunidade Heliópolis,116984789
1607896831574,1011777454,10003963,Comunidade Belém - BENGUI,116894319
1607896841745,1012021439,10003831,Comunidade Maré 2,117202071
1607897085505,1011635729,10003857,Comunidade Jacarezinho,116713485
1607897748832,1011641649,10003966,Comunidade Belém - JURUNAS,116720901
1607898017887,1011784408,10003806,Comunidade Sol Nascente,116903413
1607898041975,1011704629,10003857,Comunidade Jacarezinho,116802190
1607898057051,1011573366,10003857,Comunidade Jacarezinho,117111198
1607898178967,1011573508,10003963,Comunidade Belém - BENGUI,116633699
1607898293877,1012068156,10003963,Comunidade Belém - BENGUI,117262129
1607898467051,1011961965,10003857,Comunidade Jacarezinho,117126255
1607898504794,1012045767,10003806,Comunidade Sol Nascente,117233186
1607898533091,1012068251,10003857,Comunidade Jacarezinho,117262242
1607898594245,1012068271,10003420,Comunidade Heliópolis,117262266
1607898674981,1011777454,10003963,Comunidade Belém - BENGUI,116894319
1607898890899,1011640482,10003966,Comunidade Belém - JURUNAS,116719378
1607898962574,1011573570,10003779,Comunidade Rocinha,116633779
1607899422855,1012068553,10003420,Comunidade Heliópolis,117262635
1607899730277,1012045767,10003806,Comunidade Sol Nascente,117233186
1607899732883,1012043485,10003806,Comunidade Sol Nascente,117230310
1607899781058,1011850284,10003420,Comunidade Heliópolis,116984789
1607899835855,1011788903,10003963,Comunidade Belém - BENGUI,116908760
1607899884542,1011704629,10003857,Comunidade Jacarezinho,116802190
1607899915206,1011609249,10003967,Comunidade Belém - TELÉGRAFO,116756485
1607899929155,1011579205,10003857,Comunidade Jacarezinho,116640621
1607899940347,1011679267,10003857,Comunidade Jacarezinho,116769895
1607900000116,1011348580,10003779,Comunidade Rocinha,116353203
1607900019415,1011573366,10003857,Comunidade Jacarezinho,117111198
1607900115716,1011573508,10003963,Comunidade Belém - BENGUI,116633699
1607900130034,1011822759,10003967,Comunidade Belém - TELÉGRAFO,116951156
1607900134117,1011848673,10003742,Comunidade Paraisópolis,116983046
1607900292398,1011964730,10003967,Comunidade Belém - TELÉGRAFO,117129704
1607900298355,1011564955,10003857,Comunidade Jacarezinho,117173463
1607900379580,1011641649,10003966,Comunidade Belém - JURUNAS,116720901
1607900421806,1011554743,10003420,Comunidade Heliópolis,116610082
1607900560787,1011777454,10003963,Comunidade Belém - BENGUI,116894319
1607900583880,1012032067,10003792,Comunidade Maré,117215609
1607900609741,1011831771,10003967,Comunidade Belém - TELÉGRAFO,116962545
1607900610955,1011660415,10003420,Comunidade Heliópolis,116745777
1607900680003,1012030217,10003792,Comunidade Maré,117213222
1607900753103,1012030534,10003831,Comunidade Maré 2,117213640
1607900753569,1012030515,10003831,Comunidade Maré 2,117213616
1607900766152,1011950168,10003420,Comunidade Heliópolis,117111248
1607900888547,1012032067,10003792,Comunidade Maré,117263244
1607900987647,1011573570,10003779,Comunidade Rocinha,116633779
