timestamp,skyfiiId,venueId,bytesUp,venueName,deviceId,duration,bytesDown
1608675164000,1011609249,10003967,448003,Comunidade Belém - TELÉGRAFO,116756485,1229,4016026
1608675156000,1011777454,10003963,4693821,Comunidade Belém - BENGUI,116894319,1800,253289008
