timestamp,skyfiiId,venueId,bytesUp,venueName,deviceId,duration,bytesDown
1608677605000,1012193608,10003967,6497192,Comunidade Belém - TELÉGRAFO,117422750,744,107308354
1608677652000,1011671325,10003967,974539,Comunidade Belém - TELÉGRAFO,116759373,229,15824670
1608674403000,1012031937,10003967,1172114,Comunidade Belém - TELÉGRAFO,117215452,834,5201213
