timestamp,skyfiiId,venueId,bytesUp,venueName,deviceId,duration,bytesDown
1608677719000,1012192255,10003967,633967,Comunidade Belém - TELÉGRAFO,117420964,849,8375058
1608677889000,1011608742,10003967,1882610,Comunidade Belém - TELÉGRAFO,116906943,1104,49688802
