timestamp,skyfiiId,venueId,bytesUp,venueName,deviceId,duration,bytesDown
1608606463000,1011637779,10003963,64933867,Comunidade Belém - BENGUI,117404138,556,62728919
1608605665000,1012167275,10003792,8142768,Comunidade Maré,117388726,667,42278628
