timestamp,skyfiiId,venueId,bytesUp,venueName,deviceId,duration,bytesDown
1608638198000,1011540036,10003420,202752,Comunidade Heliópolis,116591721,588,955392
1608635800000,1011823062,10003420,5773312,Comunidade Heliópolis,117392929,3071,165158912
1608636594000,1012030242,10003792,186932,Comunidade Maré,117213257,443,765616
